%YAML 1.1
%TAG !u! tag:unity3d.com,2011:
--- !u!114 &11400000
MonoBehaviour:
  m_ObjectHideFlags: 0
  m_CorrespondingSourceObject: {fileID: 0}
  m_PrefabInstance: {fileID: 0}
  m_PrefabAsset: {fileID: 0}
  m_GameObject: {fileID: 0}
  m_Enabled: 1
  m_EditorHideFlags: 0
  m_Script: {fileID: 11500000, guid: 60662c0c8e47e904186a48260fbdc15c, type: 3}
  m_Name: master_car_1_3
  m_EditorClassIdentifier: 
  SaveData:
    Passed: 0
    Locked: 0
  _level: 1
  _exampleCar: {fileID: 21300000, guid: 004ae8a9eef150a489877323e5a9ed70, type: 3}
  _puzzlePieceDatas:
  - {fileID: 11400000, guid: 1c07ff5c54a742c4da99fff82cc1d0d9, type: 2}
  - {fileID: 11400000, guid: 86d162e94d4efdc47ac562c9704b2656, type: 2}
  - {fileID: 11400000, guid: a7747e257bd36c648a31297c1a1e9f83, type: 2}
