%YAML 1.1
%TAG !u! tag:unity3d.com,2011:
--- !u!114 &11400000
MonoBehaviour:
  m_ObjectHideFlags: 0
  m_CorrespondingSourceObject: {fileID: 0}
  m_PrefabInstance: {fileID: 0}
  m_PrefabAsset: {fileID: 0}
  m_GameObject: {fileID: 0}
  m_Enabled: 1
  m_EditorHideFlags: 0
  m_Script: {fileID: 11500000, guid: 60662c0c8e47e904186a48260fbdc15c, type: 3}
  m_Name: master_car_1_1
  m_EditorClassIdentifier: 
  SaveData:
    Passed: 0
    Locked: 0
  _level: 1
  _exampleCar: {fileID: 21300000, guid: decddcee335b7b84892f449e85ec3d36, type: 3}
  _puzzlePieceDatas:
  - {fileID: 11400000, guid: f3d6c1ed6ddf38f47bfffdf726b18a38, type: 2}
  - {fileID: 11400000, guid: 4d1ab5ded68299644aab2af643c719ef, type: 2}
  - {fileID: 11400000, guid: 56f47e637e3c383478a07e3dc9ea01ea, type: 2}
  - {fileID: 11400000, guid: 60f222e647561bb44b74a760471020c1, type: 2}
