%YAML 1.1
%TAG !u! tag:unity3d.com,2011:
--- !u!114 &11400000
MonoBehaviour:
  m_ObjectHideFlags: 0
  m_CorrespondingSourceObject: {fileID: 0}
  m_PrefabInstance: {fileID: 0}
  m_PrefabAsset: {fileID: 0}
  m_GameObject: {fileID: 0}
  m_Enabled: 1
  m_EditorHideFlags: 0
  m_Script: {fileID: 11500000, guid: 1394cb3526145854ca4cbba21ac06635, type: 3}
  m_Name: puzzle_3_4_2
  m_EditorClassIdentifier: 
  _sprite: {fileID: 21300000, guid: e35bc349fc13f494dbdaab0b69a6fcda, type: 3}
  _position: {x: -7.955572, y: 3.020731}
  _scale: {x: 1, y: 1}
  _acceptableRotations:
  - {x: 0, y: 0, z: 0}
  - {x: 0, y: 0, z: 180}
  _acceptAllRotations: 0
  _flipX: 1
  _flipY: 0
