%YAML 1.1
%TAG !u! tag:unity3d.com,2011:
--- !u!114 &11400000
MonoBehaviour:
  m_ObjectHideFlags: 0
  m_CorrespondingSourceObject: {fileID: 0}
  m_PrefabInstance: {fileID: 0}
  m_PrefabAsset: {fileID: 0}
  m_GameObject: {fileID: 0}
  m_Enabled: 1
  m_EditorHideFlags: 0
  m_Script: {fileID: 11500000, guid: 60662c0c8e47e904186a48260fbdc15c, type: 3}
  m_Name: master_car_2_2
  m_EditorClassIdentifier: 
  SaveData:
    Passed: 0
    Locked: 1
  _level: 2
  _exampleCar: {fileID: 21300000, guid: 3516f427ec4968d4db8a9a0520f546c5, type: 3}
  _puzzlePieceDatas:
  - {fileID: 11400000, guid: 65049d279526762458844ef4443deba9, type: 2}
  - {fileID: 11400000, guid: 4fbd3db86d8e8a64882ce632196eef77, type: 2}
  - {fileID: 11400000, guid: aad517e952705d747869a5b7f7306ea8, type: 2}
