%YAML 1.1
%TAG !u! tag:unity3d.com,2011:
--- !u!114 &11400000
MonoBehaviour:
  m_ObjectHideFlags: 0
  m_CorrespondingSourceObject: {fileID: 0}
  m_PrefabInstance: {fileID: 0}
  m_PrefabAsset: {fileID: 0}
  m_GameObject: {fileID: 0}
  m_Enabled: 1
  m_EditorHideFlags: 0
  m_Script: {fileID: 11500000, guid: 60662c0c8e47e904186a48260fbdc15c, type: 3}
  m_Name: master_car_2_3
  m_EditorClassIdentifier: 
  Locked: 1
  _level: 2
  _exampleCar: {fileID: 21300000, guid: 263db2e130137714ca233597b6e4ac31, type: 3}
  _puzzlePieceDatas:
  - {fileID: 11400000, guid: e30542cae5990be4c9d5d97a2794841b, type: 2}
  - {fileID: 11400000, guid: d12949e6ef279b5498fe3f4421427520, type: 2}
  - {fileID: 11400000, guid: 1d4afec9599fe674694a3e317d07f6a2, type: 2}
