%YAML 1.1
%TAG !u! tag:unity3d.com,2011:
--- !u!114 &11400000
MonoBehaviour:
  m_ObjectHideFlags: 0
  m_CorrespondingSourceObject: {fileID: 0}
  m_PrefabInstance: {fileID: 0}
  m_PrefabAsset: {fileID: 0}
  m_GameObject: {fileID: 0}
  m_Enabled: 1
  m_EditorHideFlags: 0
  m_Script: {fileID: 11500000, guid: 1394cb3526145854ca4cbba21ac06635, type: 3}
  m_Name: puzzle_1_4_1
  m_EditorClassIdentifier: 
  _sprite: {fileID: 21300000, guid: 0641aa761f8d7f64fa477ded25776012, type: 3}
  _position: {x: -12.72, y: 5.9}
  _acceptableRotations:
  - {x: 0, y: 0, z: 0}
  - {x: 0, y: 0, z: 180}
  _acceptAllRotations: 0
  _flipX: 0
  _flipY: 0
