%YAML 1.1
%TAG !u! tag:unity3d.com,2011:
--- !u!114 &11400000
MonoBehaviour:
  m_ObjectHideFlags: 0
  m_CorrespondingSourceObject: {fileID: 0}
  m_PrefabInstance: {fileID: 0}
  m_PrefabAsset: {fileID: 0}
  m_GameObject: {fileID: 0}
  m_Enabled: 1
  m_EditorHideFlags: 0
  m_Script: {fileID: 11500000, guid: 068b0672b4ab05041a1cc2c57baf1972, type: 3}
  m_Name: level_3
  m_EditorClassIdentifier: 
  _carTemplate: {fileID: 21300000, guid: e17c37a90484c7448b4b72a98b9c0ddc, type: 3}
  _carDatas:
  - {fileID: 11400000, guid: 226e3fa130d64c649a9f412ab7651e46, type: 2}
  - {fileID: 11400000, guid: d5d1d2985e5af874cad52d82b01b9b9f, type: 2}
  - {fileID: 11400000, guid: f1806cfff07c1bc48b89bf88a323943a, type: 2}
  - {fileID: 11400000, guid: b0824b08298851a4db7c9eba6f2597e9, type: 2}
  - {fileID: 11400000, guid: aa8d46345876c4543aa326fc723552b1, type: 2}
  - {fileID: 11400000, guid: df73b8c41e47bdd488edd499eeb93f1e, type: 2}
  - {fileID: 11400000, guid: 6c13ed3a6d8ce9e4bbaf1aac28982449, type: 2}
