%YAML 1.1
%TAG !u! tag:unity3d.com,2011:
--- !u!114 &11400000
MonoBehaviour:
  m_ObjectHideFlags: 0
  m_CorrespondingSourceObject: {fileID: 0}
  m_PrefabInstance: {fileID: 0}
  m_PrefabAsset: {fileID: 0}
  m_GameObject: {fileID: 0}
  m_Enabled: 1
  m_EditorHideFlags: 0
  m_Script: {fileID: 11500000, guid: 60662c0c8e47e904186a48260fbdc15c, type: 3}
  m_Name: car_2_9
  m_EditorClassIdentifier: 
  Locked: 1
  _level: 9
  _exampleCar: {fileID: 21300000, guid: 63568464bf34c7e489e261d9c5cac52a, type: 3}
  _puzzlePieceDatas:
  - {fileID: 11400000, guid: 8968c100f355ab145893df44c4f30138, type: 2}
  - {fileID: 11400000, guid: 52f4718843270dd47a29e2458914e641, type: 2}
  - {fileID: 11400000, guid: a21967349110c45449563d1bb73e246c, type: 2}
