%YAML 1.1
%TAG !u! tag:unity3d.com,2011:
--- !u!114 &11400000
MonoBehaviour:
  m_ObjectHideFlags: 0
  m_CorrespondingSourceObject: {fileID: 0}
  m_PrefabInstance: {fileID: 0}
  m_PrefabAsset: {fileID: 0}
  m_GameObject: {fileID: 0}
  m_Enabled: 1
  m_EditorHideFlags: 0
  m_Script: {fileID: 11500000, guid: 1394cb3526145854ca4cbba21ac06635, type: 3}
  m_Name: puzzle_2_5_4
  m_EditorClassIdentifier: 
  _sprite: {fileID: 21300000, guid: a492bd86c31d6b745a397f717bd3ac23, type: 3}
  _position: {x: -3.05, y: 3.63}
  _acceptableRotations:
  - {x: 0, y: 0, z: 90}
  _acceptAllRotations: 0
  _flipX: 0
  _flipY: 0
