%YAML 1.1
%TAG !u! tag:unity3d.com,2011:
--- !u!114 &11400000
MonoBehaviour:
  m_ObjectHideFlags: 0
  m_CorrespondingSourceObject: {fileID: 0}
  m_PrefabInstance: {fileID: 0}
  m_PrefabAsset: {fileID: 0}
  m_GameObject: {fileID: 0}
  m_Enabled: 1
  m_EditorHideFlags: 0
  m_Script: {fileID: 11500000, guid: 60662c0c8e47e904186a48260fbdc15c, type: 3}
  m_Name: master_car_3_3
  m_EditorClassIdentifier: 
  Locked: 1
  _level: 3
  _exampleCar: {fileID: 21300000, guid: 9914ec72f0e117e469a47185eeef76f8, type: 3}
  _puzzlePieceDatas:
  - {fileID: 11400000, guid: 44ce7bc99de3e7e4da924ac0a139e1b3, type: 2}
  - {fileID: 11400000, guid: e71d30081abe6de40bbfe774d27c380d, type: 2}
  - {fileID: 11400000, guid: a4a02b8eda4f8a646adc4caed2a83819, type: 2}
