%YAML 1.1
%TAG !u! tag:unity3d.com,2011:
--- !u!114 &11400000
MonoBehaviour:
  m_ObjectHideFlags: 0
  m_CorrespondingSourceObject: {fileID: 0}
  m_PrefabInstance: {fileID: 0}
  m_PrefabAsset: {fileID: 0}
  m_GameObject: {fileID: 0}
  m_Enabled: 1
  m_EditorHideFlags: 0
  m_Script: {fileID: 11500000, guid: 60662c0c8e47e904186a48260fbdc15c, type: 3}
  m_Name: master_car_3_2
  m_EditorClassIdentifier: 
  Locked: 1
  _level: 3
  _exampleCar: {fileID: 21300000, guid: 4c16095b527d1f14aa9923466562e016, type: 3}
  _puzzlePieceDatas:
  - {fileID: 11400000, guid: ebfbdea214156a044b19b727946ec02a, type: 2}
  - {fileID: 11400000, guid: 8ca1301067835a8409339ce4adefa5b1, type: 2}
  - {fileID: 11400000, guid: 1c512c7bd9ec18646862ba5cbf069975, type: 2}
