%YAML 1.1
%TAG !u! tag:unity3d.com,2011:
--- !u!114 &11400000
MonoBehaviour:
  m_ObjectHideFlags: 0
  m_CorrespondingSourceObject: {fileID: 0}
  m_PrefabInstance: {fileID: 0}
  m_PrefabAsset: {fileID: 0}
  m_GameObject: {fileID: 0}
  m_Enabled: 1
  m_EditorHideFlags: 0
  m_Script: {fileID: 11500000, guid: 60662c0c8e47e904186a48260fbdc15c, type: 3}
  m_Name: expert_car_5_2
  m_EditorClassIdentifier: 
  Locked: 1
  _level: 5
  _exampleCar: {fileID: 21300000, guid: 21c1bb123ab2ea14a8f90a513bb33a72, type: 3}
  _puzzlePieceDatas:
  - {fileID: 11400000, guid: 190850efd309d1e4e95214463f24310c, type: 2}
  - {fileID: 11400000, guid: d906b0e9cffc8d84a83a8105f07fccf7, type: 2}
  - {fileID: 11400000, guid: 13004c8a000937144be8b3becfe9b6b3, type: 2}
  - {fileID: 11400000, guid: a6186cbe4231b1745b8f14b267e1407d, type: 2}
