%YAML 1.1
%TAG !u! tag:unity3d.com,2011:
--- !u!114 &11400000
MonoBehaviour:
  m_ObjectHideFlags: 0
  m_CorrespondingSourceObject: {fileID: 0}
  m_PrefabInstance: {fileID: 0}
  m_PrefabAsset: {fileID: 0}
  m_GameObject: {fileID: 0}
  m_Enabled: 1
  m_EditorHideFlags: 0
  m_Script: {fileID: 11500000, guid: 1aa8968a4fad624479f3436ecfd8cb46, type: 3}
  m_Name: master_level
  m_EditorClassIdentifier: 
  SaveData:
    Locked: 1
  _carTemplate: {fileID: 21300000, guid: 00104a2e02e130643962df888ae3f6dc, type: 3}
  _carDatas:
  - {fileID: 11400000, guid: 98c7860202626c4469e6656f6827135c, type: 2}
  - {fileID: 11400000, guid: f9e6e87200a1a5a4fb634674d14f177c, type: 2}
  - {fileID: 11400000, guid: 38c63a15164056b4eb1247ccb273ea29, type: 2}
  - {fileID: 11400000, guid: a4ad0160b85ca184d822fd2b19bca90e, type: 2}
  - {fileID: 11400000, guid: d83b883f22b0ae549ac4e58ea80fb9e0, type: 2}
  - {fileID: 11400000, guid: 34a912a90cfd6114aa284bac27f9174f, type: 2}
  - {fileID: 11400000, guid: d6b0a9f7c466c06459e2eefcb4c4ffdc, type: 2}
  _secondCarTemplate: {fileID: 21300000, guid: 776a3d1f0a0be8e4b91f5a2258398a6d, type: 3}
  _secondCarDatas:
  - {fileID: 11400000, guid: d913d7da303481745a2378cc93a3da02, type: 2}
  - {fileID: 11400000, guid: a76e0632043d58c4c981f738dd2fcae6, type: 2}
  - {fileID: 11400000, guid: f82d1baaaafcb4849905fcaa24562153, type: 2}
  - {fileID: 11400000, guid: 93f2c0a7294bfc5409484a1c185e7c93, type: 2}
  - {fileID: 11400000, guid: 0fed9406614aae84696768ccafda4846, type: 2}
  - {fileID: 11400000, guid: 62959d663b9502943b85ea74efe37c46, type: 2}
  - {fileID: 11400000, guid: c7990fe1539e7bf4e997bfb725fe0c78, type: 2}
  _thirdCarTemplate: {fileID: 21300000, guid: e17c37a90484c7448b4b72a98b9c0ddc, type: 3}
  _thirdCarDatas:
  - {fileID: 11400000, guid: 3a406359916c99e4b96233731b76f48b, type: 2}
  - {fileID: 11400000, guid: e9710082712323348adc30ec8d6a55c7, type: 2}
  - {fileID: 11400000, guid: e7df123f174e89f46bebf2359e8a3093, type: 2}
  - {fileID: 11400000, guid: 982906d2098e6424cbd87dc27996fa02, type: 2}
  - {fileID: 11400000, guid: fc16afe62bdc33e45a74732f01126c81, type: 2}
  - {fileID: 11400000, guid: ad3a41422528aa8488eed5249015ed88, type: 2}
  - {fileID: 11400000, guid: 147b055b593a7bc40a20e8026cb2ce8a, type: 2}
