%YAML 1.1
%TAG !u! tag:unity3d.com,2011:
--- !u!114 &11400000
MonoBehaviour:
  m_ObjectHideFlags: 0
  m_CorrespondingSourceObject: {fileID: 0}
  m_PrefabInstance: {fileID: 0}
  m_PrefabAsset: {fileID: 0}
  m_GameObject: {fileID: 0}
  m_Enabled: 1
  m_EditorHideFlags: 0
  m_Script: {fileID: 11500000, guid: 60662c0c8e47e904186a48260fbdc15c, type: 3}
  m_Name: master_car_5_3
  m_EditorClassIdentifier: 
  Locked: 1
  _level: 5
  _exampleCar: {fileID: 21300000, guid: 9bcd017dddf2c6843a7834febef0388b, type: 3}
  _puzzlePieceDatas:
  - {fileID: 11400000, guid: 62fe17548b94a024088c5a11c901558a, type: 2}
  - {fileID: 11400000, guid: c05112537dc5a044c99f897a0f8a8f5e, type: 2}
