%YAML 1.1
%TAG !u! tag:unity3d.com,2011:
--- !u!114 &11400000
MonoBehaviour:
  m_ObjectHideFlags: 0
  m_CorrespondingSourceObject: {fileID: 0}
  m_PrefabInstance: {fileID: 0}
  m_PrefabAsset: {fileID: 0}
  m_GameObject: {fileID: 0}
  m_Enabled: 1
  m_EditorHideFlags: 0
  m_Script: {fileID: 11500000, guid: 60662c0c8e47e904186a48260fbdc15c, type: 3}
  m_Name: master_car_6_3
  m_EditorClassIdentifier: 
  Locked: 1
  _level: 6
  _exampleCar: {fileID: 21300000, guid: 6ceb54febf2d8154c8f659ff5e7b46b5, type: 3}
  _puzzlePieceDatas:
  - {fileID: 11400000, guid: cbcf217675b663746905b82528e14cde, type: 2}
  - {fileID: 11400000, guid: 09fa2d85387e10d47ba317376866db09, type: 2}
  - {fileID: 11400000, guid: 9123412e34176b642b7122330dbc4caa, type: 2}
